﻿Site Name,Clips OC'd,Cable Mgmt Checked,Row Configured,Commissioned ,FCS Start,Commissioned By,Notes,Row Number,Snap Address,Location Text,Panel Snow Sensor,Panel Snow Sensor Height,Horizontal Calibration Offset,Min Angle,Max Angle,Lat,Long,Config Flags,"Panel Array Width
 (CM)",Row Type,Row End,"North Elevation
(Feet)","North Spacing East
 (CM)","North Spacing West
 (CM)","North Delta Height East
 (CM)","North Delta Height West
 (CM)",Row End,South Elevation,"South Spacing East
 (CM)","South Spacing West
 (CM)","South Delta Height East
 (CM)","South Delta Height West
 (CM)",Config Label,BLT Filename,Presets File,Commissioning Notes
Norwich,,,,,,,,75,19a75d,,No,n/a,0,-60,60,,,0x0085,402.8694,West End,North,,994.745,0,0,0,South,,994.745,0,0,0,,,,
Norwich,,,,,,,,76,19a6ef,,No,n/a,0,-60,60,,,0x0085,402.8694,Exterior,North,,994.745,994.745,0,0,South,,994.745,994.745,0,0,,,,
Norwich,,,,,,,,77,19a767,,No,n/a,0,-60,60,,,0x0085,402.8694,Exterior,North,,994.745,994.745,0,0,South,,994.745,994.745,0,0,,,,
Norwich,,,,,,,,78,141f0a,,No,n/a,0,-60,60,,,0x0085,402.8694,Interior,North,,994.745,994.745,0,0,South,,994.745,994.745,0,0,,,,
Norwich,,,,,,,,79,19a70e,,No,n/a,0,-60,60,,,0x0085,402.8694,Interior,North,,994.745,994.745,0,0,South,,994.745,994.745,0,0,,,,
Norwich,,,,,,,,80,19a70e,,No,n/a,0,-60,60,,,0x0085,402.8694,Exterior,North,,994.745,994.745,0,0,South,,994.745,994.745,0,0,,,,
Norwich,,,,,,,,81,19a6c9,,No,n/a,0,-60,60,,,0x0085,402.8694,Exterior,North,,994.745,994.745,0,0,South,,994.745,994.745,0,0,,,,
Norwich,,,,,,,,82,141eef,,No,n/a,0,-60,60,,,0x0085,402.8694,East End,North,,0,994.745,0,0,South,,0,994.745,0,0,,,,
Norwich,,,,,,,,83,19a701,,No,n/a,0,-60,60,,,0x0085,402.8694,West End,North,,994.745,0,0,0,South,,994.745,0,0,0,,,,
Norwich,,,,,,,,84,19a6fc,,No,n/a,0,-60,60,,,0x0085,402.8694,Exterior,North,,994.745,994.745,0,0,South,,994.745,994.745,0,0,,,,
Norwich,,,,,,,,85,19a709,,No,n/a,0,-60,60,,,0x0085,402.8694,Exterior,North,,994.745,994.745,0,0,South,,994.745,994.745,0,0,,,,
Norwich,,,,,,,,86,19a6f1,,No,n/a,0,-60,60,,,0x0085,402.8694,Interior,North,,994.745,994.745,0,0,South,,994.745,994.745,0,0,,,,
Norwich,,,,,,,,87,19a708,,No,n/a,0,-60,60,,,0x0085,402.8694,Interior,North,,994.745,994.745,0,0,South,,994.745,994.745,0,0,,,,
Norwich,,,,,,,,88,19a6f7,,No,n/a,0,-60,60,,,0x0085,402.8694,Interior,North,,994.745,994.745,0,0,South,,994.745,994.745,0,0,,,,
Norwich,,,,,,,,89,19a6b8,,No,n/a,0,-60,60,,,0x0085,402.8694,Interior,North,,994.745,994.745,0,0,South,,994.745,994.745,0,0,,,,
Norwich,,,,,,,,90,19a06e,,No,n/a,0,-60,60,,,0x0085,402.8694,Interior,North,,994.745,994.745,0,0,South,,994.745,994.745,0,0,,,,
Norwich,,,,,,,,91,19a63b,,No,n/a,0,-60,60,,,0x0085,402.8694,Interior,North,,994.745,994.745,0,0,South,,994.745,994.745,0,0,,,,
Norwich,,,,,,,,92,19a636,,No,n/a,0,-60,60,,,0x0085,402.8694,Interior,North,,994.745,994.745,0,0,South,,994.745,994.745,0,0,,,,
Norwich,,,,,,,,93,141ea1,,No,n/a,0,-60,60,,,0x0085,402.8694,Interior,North,,994.745,994.745,0,0,South,,994.745,994.745,0,0,,,,
Norwich,,,,,,,,94,141daa,,No,n/a,0,-60,60,,,0x0085,402.8694,Interior,North,,994.745,994.745,0,0,South,,994.745,994.745,0,0,,,,
Norwich,,,,,,,,95,141ea9,,No,n/a,0,-60,60,,,0x0085,402.8694,Interior,North,,994.745,994.745,0,0,South,,994.745,994.745,0,0,,,,
Norwich,,,,,,,,96,19a676,,No,n/a,0,-60,60,,,0x0085,402.8694,Interior,North,,994.745,994.745,0,0,South,,994.745,994.745,0,0,,,,
Norwich,,,,,,,,97,19a6e1,,No,n/a,0,-60,60,,,0x0085,402.8694,Interior,North,,994.745,994.745,0,0,South,,994.745,994.745,0,0,,,,
Norwich,,,,,,,,98,19a667,,No,n/a,0,-60,60,,,0x0085,402.8694,Interior,North,,994.745,994.745,0,0,South,,994.745,994.745,0,0,,,,
Norwich,,,,,,,,99,141f0e,,No,n/a,0,-60,60,,,0x0085,402.8694,Exterior,North,,994.745,994.745,0,0,South,,994.745,994.745,0,0,,,,
Norwich,,,,,,,,100,141d95,,No,n/a,0,-60,60,,,0x0085,402.8694,Exterior,North,,994.745,994.745,0,0,South,,994.745,994.745,0,0,,,,
Norwich,,,,,,,,101,19a63d,,No,n/a,0,-60,60,,,0x0085,402.8694,East End,North,,0,994.745,0,0,South,,0,994.745,0,0,,,,
Norwich,,,,,,,,110,19a6d0,,No,n/a,0,-60,60,,,0x0085,402.8694,West End,North,,994.745,0,0,0,South,,994.745,0,0,0,,,,
Norwich,,,,,,,,111,19a684,,No,n/a,0,-60,60,,,0x0085,402.8694,Exterior,North,,994.745,994.745,0,0,South,,994.745,994.745,0,0,,,,
Norwich,,,,,,,,112,19a659,,No,n/a,0,-60,60,,,0x0085,402.8694,Exterior,North,,994.745,994.745,0,0,South,,994.745,994.745,0,0,,,,
Norwich,,,,,,,,113,19a743,,No,n/a,0,-60,60,,,0x0085,402.8694,Interior,North,,994.745,994.745,0,0,South,,994.745,994.745,0,0,,,,
Norwich,,,,,,,,114,19a6cf,,No,n/a,0,-60,60,,,0x0085,402.8694,Interior,North,,994.745,994.745,0,0,South,,994.745,994.745,0,0,,,,
Norwich,,,,,,,,115,19a64c,,No,n/a,0,-60,60,,,0x0085,402.8694,Interior,North,,994.745,994.745,0,0,South,,994.745,994.745,0,0,,,,
Norwich,,,,,,,,116,19a703,,No,n/a,0,-60,60,,,0x0085,402.8694,Interior,North,,994.745,994.745,0,0,South,,994.745,994.745,0,0,,,,
Norwich,,,,,,,,117,19a6ee,,No,n/a,0,-60,60,,,0x0085,402.8694,Interior,North,,994.745,994.745,0,0,South,,994.745,994.745,0,0,,,,
Norwich,,,,,,,,118,19a798,,No,n/a,0,-60,60,,,0x0085,402.8694,Interior,North,,994.745,994.745,0,0,South,,994.745,994.745,0,0,,,,
Norwich,,,,,,,,119,19a702,,No,n/a,0,-60,60,,,0x0085,402.8694,Interior,North,,994.745,994.745,0,0,South,,994.745,994.745,0,0,,,,
Norwich,,,,,,,,120,141f10,,No,n/a,0,-60,60,,,0x0085,402.8694,Interior,North,,994.745,994.745,0,0,South,,994.745,994.745,0,0,,,,
Norwich,,,,,,,,121,141ef5,,No,n/a,0,-60,60,,,0x0085,402.8694,Interior,North,,994.745,994.745,0,0,South,,994.745,994.745,0,0,,,,
Norwich,,,,,,,,122,141d63,,No,n/a,0,-60,60,,,0x0085,402.8694,Interior,North,,994.745,994.745,0,0,South,,994.745,994.745,0,0,,,,
Norwich,,,,,,,,123,19a650,,No,n/a,0,-60,60,,,0x0085,402.8694,Interior,North,,994.745,994.745,0,0,South,,994.745,994.745,0,0,,,,
Norwich,,,,,,,,124,19a669,,No,n/a,0,-60,60,,,0x0085,402.8694,Interior,North,,994.745,994.745,0,0,South,,994.745,994.745,0,0,,,,
Norwich,,,,,,,,125,141d83,,No,n/a,0,-60,60,,,0x0085,402.8694,Interior,North,,994.745,994.745,0,0,South,,994.745,994.745,0,0,,,,
Norwich,,,,,,,,126,19a6c1,,No,n/a,0,-60,60,,,0x0085,402.8694,Interior,North,,994.745,994.745,0,0,South,,994.745,994.745,0,0,,,,
Norwich,,,,,,,,127,19a64a,,No,n/a,0,-60,60,,,0x0085,402.8694,Interior,North,,994.745,994.745,0,0,South,,994.745,994.745,0,0,,,,
Norwich,,,,,,,,128,1410b8,,No,n/a,0,-60,60,,,0x0085,402.8694,Interior,North,,994.745,994.745,0,0,South,,994.745,994.745,0,0,,,,
Norwich,,,,,,,,129,19a6d4,,No,n/a,0,-60,60,,,0x0085,402.8694,Interior,North,,994.745,994.745,0,0,South,,994.745,994.745,0,0,,,,
Norwich,,,,,,,,130,19a7b0,,No,n/a,0,-60,60,,,0x0085,402.8694,Interior,North,,994.745,994.745,0,0,South,,994.745,994.745,0,0,,,,
Norwich,,,,,,,,131,19a6bb,,No,n/a,0,-60,60,,,0x0085,402.8694,Interior,North,,994.745,994.745,0,0,South,,994.745,994.745,0,0,,,,
Norwich,,,,,,,,132,19a68a,,No,n/a,0,-60,60,,,0x0085,402.8694,Interior,North,,994.745,994.745,0,0,South,,994.745,994.745,0,0,,,,
Norwich,,,,,,,,133,19a78f,,No,n/a,0,-60,60,,,0x0085,402.8694,Interior,North,,994.745,994.745,0,0,South,,994.745,994.745,0,0,,,,
Norwich,,,,,,,,134,1410be,,No,n/a,0,-60,60,,,0x0085,402.8694,Interior,North,,994.745,994.745,0,0,South,,994.745,994.745,0,0,,,,
Norwich,,,,,,,,135,19a78a,,No,n/a,0,-60,60,,,0x0085,402.8694,Interior,North,,994.745,994.745,0,0,South,,994.745,994.745,0,0,,,,
Norwich,,,,,,,,136,19a788,,No,n/a,0,-60,60,,,0x0085,402.8694,Interior,North,,994.745,994.745,0,0,South,,994.745,994.745,0,0,,,,
Norwich,,,,,,,,137,19a68c,,No,n/a,0,-60,60,,,0x0085,402.8694,Interior,North,,994.745,994.745,0,0,South,,994.745,994.745,0,0,,,,
Norwich,,,,,,,,138,19a6a1,,No,n/a,0,-60,60,,,0x0085,402.8694,Interior,North,,994.745,994.745,0,0,South,,994.745,994.745,0,0,,,,
Norwich,,,,,,,,139,19a8fe,,No,n/a,0,-60,60,,,0x0085,402.8694,Interior,North,,994.745,994.745,0,0,South,,994.745,994.745,0,0,,,,
Norwich,,,,,,,,140,19a76f,,No,n/a,0,-60,60,,,0x0085,402.8694,Interior,North,,994.745,994.745,0,0,South,,994.745,994.745,0,0,,,,
Norwich,,,,,,,,141,19a052,,No,n/a,0,-60,60,,,0x0085,402.8694,Exterior,North,,994.745,994.745,0,0,South,,994.745,994.745,0,0,,,,
Norwich,,,,,,,,142,19a75e,,No,n/a,0,-60,60,,,0x0085,402.8694,Exterior,North,,994.745,994.745,0,0,South,,994.745,994.745,0,0,,,,
Norwich,,,,,,,,143,19a7a2,,No,n/a,0,-60,60,,,0x0085,402.8694,East End,North,,0,994.745,0,0,South,,0,994.745,0,0,,,,
Norwich,,,,,,,,157,19a694,,No,n/a,0,-60,60,,,0x0085,402.8694,West End,North,,994.745,0,0,0,South,,994.745,0,0,0,,,,
Norwich,,,,,,,,158,19a691,,No,n/a,0,-60,60,,,0x0085,402.8694,Exterior,North,,994.745,994.745,0,0,South,,994.745,994.745,0,0,,,,
Norwich,,,,,,,,159,19a689,,No,n/a,0,-60,60,,,0x0085,402.8694,Exterior,North,,994.745,994.745,0,0,South,,994.745,994.745,0,0,,,,
Norwich,,,,,,,,160,19a65a,,No,n/a,0,-60,60,,,0x0085,402.8694,Interior,North,,994.745,994.745,0,0,South,,994.745,994.745,0,0,,,,
Norwich,,,,,,,,161,19a671,,No,n/a,0,-60,60,,,0x0085,402.8694,Interior,North,,994.745,994.745,0,0,South,,994.745,994.745,0,0,,,,
Norwich,,,,,,,,162,141e9c,,No,n/a,0,-60,60,,,0x0085,402.8694,Interior,North,,994.745,994.745,0,0,South,,994.745,994.745,0,0,,,,
Norwich,,,,,,,,163,141d7d,,No,n/a,0,-60,60,,,0x0085,402.8694,Interior,North,,994.745,994.745,0,0,South,,994.745,994.745,0,0,,,,
Norwich,,,,,,,,164,19a64f,,No,n/a,0,-60,60,,,0x0085,402.8694,Interior,North,,994.745,994.745,0,0,South,,994.745,994.745,0,0,,,,
Norwich,,,,,,,,165,19a66d,,No,n/a,0,-60,60,,,0x0085,402.8694,Interior,North,,994.745,994.745,0,0,South,,994.745,994.745,0,0,,,,
Norwich,,,,,,,,166,1410b0,,No,n/a,0,-60,60,,,0x0085,402.8694,Interior,North,,994.745,994.745,0,0,South,,994.745,994.745,0,0,,,,
Norwich,,,,,,,,167,19a751,,No,n/a,0,-60,60,,,0x0085,402.8694,Interior,North,,994.745,994.745,0,0,South,,994.745,994.745,0,0,,,,
Norwich,,,,,,,,168,19a63e,,No,n/a,0,-60,60,,,0x0085,402.8694,Interior,North,,994.745,994.745,0,0,South,,994.745,994.745,0,0,,,,
Norwich,,,,,,,,169,19a7af,,No,n/a,0,-60,60,,,0x0085,402.8694,Interior,North,,994.745,994.745,0,0,South,,994.745,994.745,0,0,,,,
Norwich,,,,,,,,170,19a903,,No,n/a,0,-60,60,,,0x0085,402.8694,Interior,North,,994.745,994.745,0,0,South,,994.745,994.745,0,0,,,,
Norwich,,,,,,,,171,141d81,,No,n/a,0,-60,60,,,0x0085,402.8694,Interior,North,,994.745,994.745,0,0,South,,994.745,994.745,0,0,,,,
Norwich,,,,,,,,172,141e79,,No,n/a,0,-60,60,,,0x0085,402.8694,Interior,North,,994.745,994.745,0,0,South,,994.745,994.745,0,0,,,,
Norwich,,,,,,,,173,19a64d,,No,n/a,0,-60,60,,,0x0085,402.8694,Interior,North,,994.745,994.745,0,0,South,,994.745,994.745,0,0,,,,
Norwich,,,,,,,,174,19a6a2,,No,n/a,0,-60,60,,,0x0085,402.8694,Interior,North,,994.745,994.745,0,0,South,,994.745,994.745,0,0,,,,
Norwich,,,,,,,,175,141d75,,No,n/a,0,-60,60,,,0x0085,402.8694,Interior,North,,994.745,994.745,0,0,South,,994.745,994.745,0,0,,,,
Norwich,,,,,,,,176,141eab,,No,n/a,0,-60,60,,,0x0085,402.8694,Interior,North,,994.745,994.745,0,0,South,,994.745,994.745,0,0,,,,
Norwich,,,,,,,,177,141d76,,No,n/a,0,-60,60,,,0x0085,402.8694,Interior,North,,994.745,994.745,0,0,South,,994.745,994.745,0,0,,,,
Norwich,,,,,,,,178,19a79a,,No,n/a,0,-60,60,,,0x0085,402.8694,Interior,North,,994.745,994.745,0,0,South,,994.745,994.745,0,0,,,,
Norwich,,,,,,,,179,141edc,,No,n/a,0,-60,60,,,0x0085,402.8694,Interior,North,,994.745,994.745,0,0,South,,994.745,994.745,0,0,,,,
Norwich,,,,,,,,180,19a68f,,No,n/a,0,-60,60,,,0x0085,402.8694,Interior,North,,994.745,994.745,0,0,South,,994.745,994.745,0,0,,,,
Norwich,,,,,,,,181,19a707,,No,n/a,0,-60,60,,,0x0085,402.8694,Interior,North,,994.745,994.745,0,0,South,,994.745,994.745,0,0,,,,
Norwich,,,,,,,,182,19a06f,,No,n/a,0,-60,60,,,0x0085,402.8694,Interior,North,,994.745,994.745,0,0,South,,994.745,994.745,0,0,,,,
Norwich,,,,,,,,183,1410b7,,No,n/a,0,-60,60,,,0x0085,402.8694,Interior,North,,994.745,994.745,0,0,South,,994.745,994.745,0,0,,,,
Norwich,,,,,,,,184,19a6ad,,No,n/a,0,-60,60,,,0x0085,402.8694,Interior,North,,994.745,994.745,0,0,South,,994.745,994.745,0,0,,,,
Norwich,,,,,,,,185,19a666,,No,n/a,0,-60,60,,,0x0085,402.8694,Interior,North,,994.745,994.745,0,0,South,,994.745,994.745,0,0,,,,
Norwich,,,,,,,,186,19a670,,No,n/a,0,-60,60,,,0x0085,402.8694,Interior,North,,994.745,994.745,0,0,South,,994.745,994.745,0,0,,,,
Norwich,,,,,,,,187,19a6d7,,No,n/a,0,-60,60,,,0x0085,402.8694,Interior,North,,994.745,994.745,0,0,South,,994.745,994.745,0,0,,,,
Norwich,,,,,,,,188,19a641,,No,n/a,0,-60,60,,,0x0085,402.8694,Interior,North,,994.745,994.745,0,0,South,,994.745,994.745,0,0,,,,
Norwich,,,,,,,,189,19a91b,,No,n/a,0,-60,60,,,0x0085,402.8694,Interior,North,,994.745,994.745,0,0,South,,994.745,994.745,0,0,,,,
Norwich,,,,,,,,190,19a797,,No,n/a,0,-60,60,,,0x0085,402.8694,Interior,North,,1733.7024,994.745,0,0,South,,1733.7024,994.745,0,0,,,,
Norwich,,,,,,,,210,141ec2,,No,n/a,0,-60,60,,,0x0085,402.8694,West End,North,,994.745,0,0,0,South,,994.745,0,0,0,,,,
Norwich,,,,,,,,211,19a63c,,No,n/a,0,-60,60,,,0x0085,402.8694,Exterior,North,,994.745,994.745,0,0,South,,994.745,994.745,0,0,,,,
Norwich,,,,,,,,212,141fcf,,No,n/a,0,-60,60,,,0x0085,402.8694,Exterior,North,,994.745,994.745,0,0,South,,994.745,994.745,0,0,,,,
Norwich,,,,,,,,213,141e7c,,No,n/a,0,-60,60,,,0x0085,402.8694,Interior,North,,994.745,994.745,0,0,South,,994.745,994.745,0,0,,,,
Norwich,,,,,,,,214,141ee3,,No,n/a,0,-60,60,,,0x0085,402.8694,Interior,North,,994.745,994.745,0,0,South,,994.745,994.745,0,0,,,,
Norwich,,,,,,,,215,141fb8,,No,n/a,0,-60,60,,,0x0085,402.8694,Interior,North,,994.745,994.745,0,0,South,,994.745,994.745,0,0,,,,
Norwich,,,,,,,,216,141fb3,,No,n/a,0,-60,60,,,0x0085,402.8694,Interior,North,,994.745,994.745,0,0,South,,994.745,994.745,0,0,,,,
Norwich,,,,,,,,217,141dcb,,No,n/a,0,-60,60,,,0x0085,402.8694,Interior,North,,994.745,994.745,0,0,South,,994.745,994.745,0,0,,,,
Norwich,,,,,,,,218,141e77,,No,n/a,0,-60,60,,,0x0085,402.8694,Interior,North,,994.745,994.745,0,0,South,,994.745,994.745,0,0,,,,
Norwich,,,,,,,,219,141fc3,,No,n/a,0,-60,60,,,0x0085,402.8694,Interior,North,,994.745,994.745,0,0,South,,994.745,994.745,0,0,,,,
Norwich,,,,,,,,220,141dc4,,No,n/a,0,-60,60,,,0x0085,402.8694,Interior,North,,994.745,994.745,0,0,South,,994.745,994.745,0,0,,,,
Norwich,,,,,,,,221,141f6b,,No,n/a,0,-60,60,,,0x0085,402.8694,Interior,North,,994.745,994.745,0,0,South,,994.745,994.745,0,0,,,,
Norwich,,,,,,,,222,141f6a,,No,n/a,0,-60,60,,,0x0085,402.8694,Interior,North,,994.745,994.745,0,0,South,,994.745,994.745,0,0,,,,
Norwich,,,,,,,,223,19a6e4,,No,n/a,0,-60,60,,,0x0085,402.8694,Interior,North,,994.745,994.745,0,0,South,,994.745,994.745,0,0,,,,
Norwich,,,,,,,,224,141d70,,No,n/a,0,-60,60,,,0x0085,402.8694,Interior,North,,994.745,994.745,0,0,South,,994.745,994.745,0,0,,,,
Norwich,,,,,,,,225,141fca,,No,n/a,0,-60,60,,,0x0085,402.8694,Interior,North,,994.745,994.745,0,0,South,,994.745,994.745,0,0,,,,
Norwich,,,,,,,,226,19a6b7,,No,n/a,0,-60,60,,,0x0085,402.8694,Interior,North,,994.745,994.745,0,0,South,,994.745,994.745,0,0,,,,
Norwich,,,,,,,,227,19a7a4,,No,n/a,0,-60,60,,,0x0085,402.8694,Interior,North,,1733.7024,994.745,0,0,South,,1733.7024,994.745,0,0,,,,
,,,,,,,,,,,,,,,,,,,,,,,,,,,,,,,,,,,,
,,,,,,,,,,,,,,,,,,,,,,,,,,,,,,,,,,,,
,,,,,,,,,,,,,,,,,,,,,,,,,,,,,,,,,,,,
,,,,,,,,,,,,,,,,,,,,,,,,,,,,,,,,,,,,
,,,,,,,,,,,,,,,,,,,,,,,,,,,,,,,,,,,,
,,,,,,,,,,,,,,,,,,,,,,,,,,,,,,,,,,,,
,,,,,,,,,,,,,,,,,,,,,,,,,,,,,,,,,,,,
,,,,,,,,,,,,,,,,,,,,,,,,,,,,,,,,,,,,
,,,,,,,,,,,,,,,,,,,,,,,,,,,,,,,,,,,,
,,,,,,,,,,,,,,,,,,,,,,,,,,,,,,,,,,,,
,,,,,,,,,,,,,,,,,,,,,,,,,,,,,,,,,,,,
,,,,,,,,,,,,,,,,,,,,,,,,,,,,,,,,,,,,
,,,,,,,,,,,,,,,,,,,,,,,,,,,,,,,,,,,,
,,,,,,,,,,,,,,,,,,,,,,,,,,,,,,,,,,,,
,,,,,,,,,,,,,,,,,,,,,,,,,,,,,,,,,,,,
,,,,,,,,,,,,,,,,,,,,,,,,,,,,,,,,,,,,
,,,,,,,,,,,,,,,,,,,,,,,,,,,,,,,,,,,,
,,,,,,,,,,,,,,,,,,,,,,,,,,,,,,,,,,,,
,,,,,,,,,,,,,,,,,,,,,,,,,,,,,,,,,,,,
,,,,,,,,,,,,,,,,,,,,,,,,,,,,,,,,,,,,
,,,,,,,,,,,,,,,,,,,,,,,,,,,,,,,,,,,,
,,,,,,,,,,,,,,,,,,,,,,,,,,,,,,,,,,,,
,,,,,,,,,,,,,,,,,,,,,,,,,,,,,,,,,,,,
,,,,,,,,,,,,,,,,,,,,,,,,,,,,,,,,,,,,
,,,,,,,,,,,,,,,,,,,,,,,,,,,,,,,,,,,,
,,,,,,,,,,,,,,,,,,,,,,,,,,,,,,,,,,,,
,,,,,,,,,,,,,,,,,,,,,,,,,,,,,,,,,,,,
,,,,,,,,,,,,,,,,,,,,,,,,,,,,,,,,,,,,
,,,,,,,,,,,,,,,,,,,,,,,,,,,,,,,,,,,,
,,,,,,,,,,,,,,,,,,,,,,,,,,,,,,,,,,,,
,,,,,,,,,,,,,,,,,,,,,,,,,,,,,,,,,,,,
,,,,,,,,,,,,,,,,,,,,,,,,,,,,,,,,,,,,
,,,,,,,,,,,,,,,,,,,,,,,,,,,,,,,,,,,,
,,,,,,,,,,,,,,,,,,,,,,,,,,,,,,,,,,,,
,,,,,,,,,,,,,,,,,,,,,,,,,,,,,,,,,,,,
,,,,,,,,,,,,,,,,,,,,,,,,,,,,,,,,,,,,
,,,,,,,,,,,,,,,,,,,,,,,,,,,,,,,,,,,,
,,,,,,,,,,,,,,,,,,,,,,,,,,,,,,,,,,,,
,,,,,,,,,,,,,,,,,,,,,,,,,,,,,,,,,,,,
,,,,,,,,,,,,,,,,,,,,,,,,,,,,,,,,,,,,
,,,,,,,,,,,,,,,,,,,,,,,,,,,,,,,,,,,,
,,,,,,,,,,,,,,,,,,,,,,,,,,,,,,,,,,,,
,,,,,,,,,,,,,,,,,,,,,,,,,,,,,,,,,,,,
,,,,,,,,,,,,,,,,,,,,,,,,,,,,,,,,,,,,
,,,,,,,,,,,,,,,,,,,,,,,,,,,,,,,,,,,,
,,,,,,,,,,,,,,,,,,,,,,,,,,,,,,,,,,,,
,,,,,,,,,,,,,,,,,,,,,,,,,,,,,,,,,,,,
,,,,,,,,,,,,,,,,,,,,,,,,,,,,,,,,,,,,
,,,,,,,,,,,,,,,,,,,,,,,,,,,,,,,,,,,,
,,,,,,,,,,,,,,,,,,,,,,,,,,,,,,,,,,,,
,,,,,,,,,,,,,,,,,,,,,,,,,,,,,,,,,,,,
,,,,,,,,,,,,,,,,,,,,,,,,,,,,,,,,,,,,
,,,,,,,,,,,,,,,,,,,,,,,,,,,,,,,,,,,,
,,,,,,,,,,,,,,,,,,,,,,,,,,,,,,,,,,,,
,,,,,,,,,,,,,,,,,,,,,,,,,,,,,,,,,,,,
,,,,,,,,,,,,,,,,,,,,,,,,,,,,,,,,,,,,
,,,,,,,,,,,,,,,,,,,,,,,,,,,,,,,,,,,,
,,,,,,,,,,,,,,,,,,,,,,,,,,,,,,,,,,,,
,,,,,,,,,,,,,,,,,,,,,,,,,,,,,,,,,,,,
,,,,,,,,,,,,,,,,,,,,,,,,,,,,,,,,,,,,
,,,,,,,,,,,,,,,,,,,,,,,,,,,,,,,,,,,,
,,,,,,,,,,,,,,,,,,,,,,,,,,,,,,,,,,,,
,,,,,,,,,,,,,,,,,,,,,,,,,,,,,,,,,,,,
,,,,,,,,,,,,,,,,,,,,,,,,,,,,,,,,,,,,
,,,,,,,,,,,,,,,,,,,,,,,,,,,,,,,,,,,,
,,,,,,,,,,,,,,,,,,,,,,,,,,,,,,,,,,,,
,,,,,,,,,,,,,,,,,,,,,,,,,,,,,,,,,,,,
,,,,,,,,,,,,,,,,,,,,,,,,,,,,,,,,,,,,
,,,,,,,,,,,,,,,,,,,,,,,,,,,,,,,,,,,,
,,,,,,,,,,,,,,,,,,,,,,,,,,,,,,,,,,,,
,,,,,,,,,,,,,,,,,,,,,,,,,,,,,,,,,,,,
,,,,,,,,,,,,,,,,,,,,,,,,,,,,,,,,,,,,
,,,,,,,,,,,,,,,,,,,,,,,,,,,,,,,,,,,,
,,,,,,,,,,,,,,,,,,,,,,,,,,,,,,,,,,,,
,,,,,,,,,,,,,,,,,,,,,,,,,,,,,,,,,,,,
,,,,,,,,,,,,,,,,,,,,,,,,,,,,,,,,,,,,
,,,,,,,,,,,,,,,,,,,,,,,,,,,,,,,,,,,,
,,,,,,,,,,,,,,,,,,,,,,,,,,,,,,,,,,,,
,,,,,,,,,,,,,,,,,,,,,,,,,,,,,,,,,,,,
,,,,,,,,,,,,,,,,,,,,,,,,,,,,,,,,,,,,
,,,,,,,,,,,,,,,,,,,,,,,,,,,,,,,,,,,,
,,,,,,,,,,,,,,,,,,,,,,,,,,,,,,,,,,,,
,,,,,,,,,,,,,,,,,,,,,,,,,,,,,,,,,,,,
,,,,,,,,,,,,,,,,,,,,,,,,,,,,,,,,,,,,
,,,,,,,,,,,,,,,,,,,,,,,,,,,,,,,,,,,,
,,,,,,,,,,,,,,,,,,,,,,,,,,,,,,,,,,,,
,,,,,,,,,,,,,,,,,,,,,,,,,,,,,,,,,,,,
,,,,,,,,,,,,,,,,,,,,,,,,,,,,,,,,,,,,
,,,,,,,,,,,,,,,,,,,,,,,,,,,,,,,,,,,,
,,,,,,,,,,,,,,,,,,,,,,,,,,,,,,,,,,,,
,,,,,,,,,,,,,,,,,,,,,,,,,,,,,,,,,,,,
,,,,,,,,,,,,,,,,,,,,,,,,,,,,,,,,,,,,
,,,,,,,,,,,,,,,,,,,,,,,,,,,,,,,,,,,,
,,,,,,,,,,,,,,,,,,,,,,,,,,,,,,,,,,,,
,,,,,,,,,,,,,,,,,,,,,,,,,,,,,,,,,,,,
,,,,,,,,,,,,,,,,,,,,,,,,,,,,,,,,,,,,
,,,,,,,,,,,,,,,,,,,,,,,,,,,,,,,,,,,,
,,,,,,,,,,,,,,,,,,,,,,,,,,,,,,,,,,,,
,,,,,,,,,,,,,,,,,,,,,,,,,,,,,,,,,,,,
,,,,,,,,,,,,,,,,,,,,,,,,,,,,,,,,,,,,
,,,,,,,,,,,,,,,,,,,,,,,,,,,,,,,,,,,,
,,,,,,,,,,,,,,,,,,,,,,,,,,,,,,,,,,,,
,,,,,,,,,,,,,,,,,,,,,,,,,,,,,,,,,,,,
,,,,,,,,,,,,,,,,,,,,,,,,,,,,,,,,,,,,
,,,,,,,,,,,,,,,,,,,,,,,,,,,,,,,,,,,,
,,,,,,,,,,,,,,,,,,,,,,,,,,,,,,,,,,,,
,,,,,,,,,,,,,,,,,,,,,,,,,,,,,,,,,,,,
,,,,,,,,,,,,,,,,,,,,,,,,,,,,,,,,,,,,
,,,,,,,,,,,,,,,,,,,,,,,,,,,,,,,,,,,,
,,,,,,,,,,,,,,,,,,,,,,,,,,,,,,,,,,,,
,,,,,,,,,,,,,,,,,,,,,,,,,,,,,,,,,,,,
,,,,,,,,,,,,,,,,,,,,,,,,,,,,,,,,,,,,
,,,,,,,,,,,,,,,,,,,,,,,,,,,,,,,,,,,,
,,,,,,,,,,,,,,,,,,,,,,,,,,,,,,,,,,,,
,,,,,,,,,,,,,,,,,,,,,,,,,,,,,,,,,,,,
,,,,,,,,,,,,,,,,,,,,,,,,,,,,,,,,,,,,
,,,,,,,,,,,,,,,,,,,,,,,,,,,,,,,,,,,,
,,,,,,,,,,,,,,,,,,,,,,,,,,,,,,,,,,,,
,,,,,,,,,,,,,,,,,,,,,,,,,,,,,,,,,,,,
,,,,,,,,,,,,,,,,,,,,,,,,,,,,,,,,,,,,
,,,,,,,,,,,,,,,,,,,,,,,,,,,,,,,,,,,,
,,,,,,,,,,,,,,,,,,,,,,,,,,,,,,,,,,,,
,,,,,,,,,,,,,,,,,,,,,,,,,,,,,,,,,,,,
,,,,,,,,,,,,,,,,,,,,,,,,,,,,,,,,,,,,
,,,,,,,,,,,,,,,,,,,,,,,,,,,,,,,,,,,,
,,,,,,,,,,,,,,,,,,,,,,,,,,,,,,,,,,,,
,,,,,,,,,,,,,,,,,,,,,,,,,,,,,,,,,,,,
,,,,,,,,,,,,,,,,,,,,,,,,,,,,,,,,,,,,
,,,,,,,,,,,,,,,,,,,,,,,,,,,,,,,,,,,,
,,,,,,,,,,,,,,,,,,,,,,,,,,,,,,,,,,,,
,,,,,,,,,,,,,,,,,,,,,,,,,,,,,,,,,,,,
,,,,,,,,,,,,,,,,,,,,,,,,,,,,,,,,,,,,
,,,,,,,,,,,,,,,,,,,,,,,,,,,,,,,,,,,,
,,,,,,,,,,,,,,,,,,,,,,,,,,,,,,,,,,,,
,,,,,,,,,,,,,,,,,,,,,,,,,,,,,,,,,,,,
,,,,,,,,,,,,,,,,,,,,,,,,,,,,,,,,,,,,
,,,,,,,,,,,,,,,,,,,,,,,,,,,,,,,,,,,,
,,,,,,,,,,,,,,,,,,,,,,,,,,,,,,,,,,,,
,,,,,,,,,,,,,,,,,,,,,,,,,,,,,,,,,,,,
,,,,,,,,,,,,,,,,,,,,,,,,,,,,,,,,,,,,
,,,,,,,,,,,,,,,,,,,,,,,,,,,,,,,,,,,,
,,,,,,,,,,,,,,,,,,,,,,,,,,,,,,,,,,,,
,,,,,,,,,,,,,,,,,,,,,,,,,,,,,,,,,,,,
,,,,,,,,,,,,,,,,,,,,,,,,,,,,,,,,,,,,
,,,,,,,,,,,,,,,,,,,,,,,,,,,,,,,,,,,,
,,,,,,,,,,,,,,,,,,,,,,,,,,,,,,,,,,,,
,,,,,,,,,,,,,,,,,,,,,,,,,,,,,,,,,,,,
,,,,,,,,,,,,,,,,,,,,,,,,,,,,,,,,,,,,
,,,,,,,,,,,,,,,,,,,,,,,,,,,,,,,,,,,,
,,,,,,,,,,,,,,,,,,,,,,,,,,,,,,,,,,,,
,,,,,,,,,,,,,,,,,,,,,,,,,,,,,,,,,,,,
,,,,,,,,,,,,,,,,,,,,,,,,,,,,,,,,,,,,
,,,,,,,,,,,,,,,,,,,,,,,,,,,,,,,,,,,,
,,,,,,,,,,,,,,,,,,,,,,,,,,,,,,,,,,,,
,,,,,,,,,,,,,,,,,,,,,,,,,,,,,,,,,,,,
,,,,,,,,,,,,,,,,,,,,,,,,,,,,,,,,,,,,
,,,,,,,,,,,,,,,,,,,,,,,,,,,,,,,,,,,,
,,,,,,,,,,,,,,,,,,,,,,,,,,,,,,,,,,,,
,,,,,,,,,,,,,,,,,,,,,,,,,,,,,,,,,,,,
,,,,,,,,,,,,,,,,,,,,,,,,,,,,,,,,,,,,
,,,,,,,,,,,,,,,,,,,,,,,,,,,,,,,,,,,,
,,,,,,,,,,,,,,,,,,,,,,,,,,,,,,,,,,,,
,,,,,,,,,,,,,,,,,,,,,,,,,,,,,,,,,,,,
,,,,,,,,,,,,,,,,,,,,,,,,,,,,,,,,,,,,
,,,,,,,,,,,,,,,,,,,,,,,,,,,,,,,,,,,,
,,,,,,,,,,,,,,,,,,,,,,,,,,,,,,,,,,,,
