13ae7e,Config1,generic.blt,0.0,-60.0,60.0,presets60.csv,0x0800,0.0,1.523,Mount Morris,34.67522,-86.749888,North West,dummybap.csv
13aeb5,Config2,generic.blt,0.0,-60.0,60.0,presets60.csv,0x0800,0.0,1.482,Mount Morris,34.67522,-86.749888,South East,dummybap.csv
13ac96,Config2,generic.blt,0.0,-60.0,60.0,presets60.csv,0x0085,0.0,0.0,Mount Morris,34.67522,-86.749888,Row 1,bap13ac96.csv
13ae10,Config2,generic.blt,0.0,-60.0,60.0,presets60.csv,0x0085,0.0,0.0,Mount Morris,34.67522,-86.749888,Row 2,bap13ae10.csv
13afa4,Config2,generic.blt,0.0,-60.0,60.0,presets60.csv,0x0085,0.0,0.0,Mount Morris,34.67522,-86.749888,Row 3,bap13afa4.csv
13aef3,Config2,generic.blt,0.0,-60.0,60.0,presets60.csv,0x0085,0.0,0.0,Mount Morris,34.67522,-86.749888,Row 4,bap13aef3.csv
13ae36,Config2,generic.blt,0.0,-60.0,60.0,presets60.csv,0x0085,0.0,0.0,Mount Morris,34.67522,-86.749888,Row 5,bap13ae36.csv
13ae31,Config2,generic.blt,0.0,-60.0,60.0,presets60.csv,0x0085,0.0,0.0,Mount Morris,34.67522,-86.749888,Row 6,bap13ae31.csv
13ae42,Config2,generic.blt,0.0,-60.0,60.0,presets60.csv,0x0085,0.0,0.0,Mount Morris,34.67522,-86.749888,Row 7,bap13ae42.csv
13ae2e,Config2,generic.blt,0.0,-60.0,60.0,presets60.csv,0x0085,0.0,0.0,Mount Morris,34.67522,-86.749888,Row 8,bap13ae2e.csv
13aef2,Config2,generic.blt,0.0,-60.0,60.0,presets60.csv,0x0085,0.0,0.0,Mount Morris,34.67522,-86.749888,Row 9,bap13aef2.csv
13ae35,Config2,generic.blt,0.0,-60.0,60.0,presets60.csv,0x0085,0.0,0.0,Mount Morris,34.67522,-86.749888,Row 10,bap13ae35.csv
13ae2f,Config2,generic.blt,0.0,-60.0,60.0,presets60.csv,0x0085,0.0,0.0,Mount Morris,34.67522,-86.749888,Row 11,bap13ae2f.csv
13ae14,Config2,generic.blt,0.0,-60.0,60.0,presets60.csv,0x0085,0.0,0.0,Mount Morris,34.67522,-86.749888,Row 12,bap13ae14.csv
13aeda,Config2,generic.blt,0.0,-60.0,60.0,presets60.csv,0x0085,0.0,0.0,Mount Morris,34.67522,-86.749888,Row 13,bap13aeda.csv
13ae0d,Config2,generic.blt,0.0,-60.0,60.0,presets60.csv,0x0085,0.0,0.0,Mount Morris,34.67522,-86.749888,Row 14,bap13ae0d.csv
13afb9,Config2,generic.blt,0.0,-60.0,60.0,presets60.csv,0x0085,0.0,0.0,Mount Morris,34.67522,-86.749888,Row 15,bap13afb9.csv
13ae11,Config2,generic.blt,0.0,-60.0,60.0,presets60.csv,0x0085,0.0,0.0,Mount Morris,34.67522,-86.749888,Row 16,bap13ae11.csv
13adf9,Config2,generic.blt,0.0,-60.0,60.0,presets60.csv,0x0085,0.0,0.0,Mount Morris,34.67522,-86.749888,Row 17,bap13adf9.csv
13af67,Config2,generic.blt,0.0,-60.0,60.0,presets60.csv,0x0085,0.0,0.0,Mount Morris,34.67522,-86.749888,Row 18,bap13af67.csv
13af56,Config2,generic.blt,0.0,-60.0,60.0,presets60.csv,0x0085,0.0,0.0,Mount Morris,34.67522,-86.749888,Row 19,bap13af56.csv
13af62,Config2,generic.blt,0.0,-60.0,60.0,presets60.csv,0x0085,0.0,0.0,Mount Morris,34.67522,-86.749888,Row 20,bap13af62.csv
13ac8c,Config2,generic.blt,0.0,-60.0,60.0,presets60.csv,0x0085,0.0,0.0,Mount Morris,34.67522,-86.749888,Row 21,bap13ac8c.csv
13af64,Config2,generic.blt,0.0,-60.0,60.0,presets60.csv,0x0085,0.0,0.0,Mount Morris,34.67522,-86.749888,Row 22,bap13af64.csv
13adfc,Config2,generic.blt,0.0,-60.0,60.0,presets60.csv,0x0085,0.0,0.0,Mount Morris,34.67522,-86.749888,Row 23,bap13adfc.csv
13af6f,Config2,generic.blt,0.0,-60.0,60.0,presets60.csv,0x0085,0.0,0.0,Mount Morris,34.67522,-86.749888,Row 24,bap13af6f.csv
13ae00,Config2,generic.blt,0.0,-60.0,60.0,presets60.csv,0x0085,0.0,0.0,Mount Morris,34.67522,-86.749888,Row 25,bap13ae00.csv
13af81,Config2,generic.blt,0.0,-60.0,60.0,presets60.csv,0x0085,0.0,0.0,Mount Morris,34.67522,-86.749888,Row 26,bap13af81.csv
13ae07,Config2,generic.blt,0.0,-60.0,60.0,presets60.csv,0x0085,0.0,0.0,Mount Morris,34.67522,-86.749888,Row 27,bap13ae07.csv
13adfb,Config2,generic.blt,0.0,-60.0,60.0,presets60.csv,0x0085,0.0,0.0,Mount Morris,34.67522,-86.749888,Row 28,bap13adfb.csv
13ae30,Config2,generic.blt,0.0,-60.0,60.0,presets60.csv,0x0085,0.0,0.0,Mount Morris,34.67522,-86.749888,Row 29,bap13ae30.csv
13af1b,Config2,generic.blt,0.0,-60.0,60.0,presets60.csv,0x0085,0.0,0.0,Mount Morris,34.67522,-86.749888,Row 30,bap13af1b.csv
13ae33,Config2,generic.blt,0.0,-60.0,60.0,presets60.csv,0x0085,0.0,0.0,Mount Morris,34.67522,-86.749888,Row 31,bap13ae33.csv
13af7f,Config2,generic.blt,0.0,-60.0,60.0,presets60.csv,0x0085,0.0,0.0,Mount Morris,34.67522,-86.749888,Row 32,bap13af7f.csv
13b049,Config2,generic.blt,0.0,-60.0,60.0,presets60.csv,0x0085,0.0,0.0,Mount Morris,34.67522,-86.749888,Row 33,bap13b049.csv
13afe2,Config2,generic.blt,0.0,-60.0,60.0,presets60.csv,0x0085,0.0,0.0,Mount Morris,34.67522,-86.749888,Row 34,bap13afe2.csv
13af89,Config2,generic.blt,0.0,-60.0,60.0,presets60.csv,0x0085,0.0,0.0,Mount Morris,34.67522,-86.749888,Row 35,bap13af89.csv
13afd6,Config2,generic.blt,0.0,-60.0,60.0,presets60.csv,0x0085,0.0,0.0,Mount Morris,34.67522,-86.749888,Row 36,bap13afd6.csv
13af53,Config2,generic.blt,0.0,-60.0,60.0,presets60.csv,0x0085,0.0,0.0,Mount Morris,34.67522,-86.749888,Row 37,bap13af53.csv
13af8b,Config2,generic.blt,0.0,-60.0,60.0,presets60.csv,0x0085,0.0,0.0,Mount Morris,34.67522,-86.749888,Row 38,bap13af8b.csv
13af98,Config2,generic.blt,0.0,-60.0,60.0,presets60.csv,0x0085,0.0,0.0,Mount Morris,34.67522,-86.749888,Row 39,bap13af98.csv
13afd5,Config2,generic.blt,0.0,-60.0,60.0,presets60.csv,0x0085,0.0,0.0,Mount Morris,34.67522,-86.749888,Row 40,bap13afd5.csv
13af3e,Config2,generic.blt,0.0,-60.0,60.0,presets60.csv,0x0085,0.0,0.0,Mount Morris,34.67522,-86.749888,Row 41,bap13af3e.csv
13accc,Config2,generic.blt,0.0,-60.0,60.0,presets60.csv,0x0085,0.0,0.0,Mount Morris,34.67522,-86.749888,Row 42,bap13accc.csv
13afe9,Config3,generic.blt,0.0,-60.0,60.0,presets60.csv,0x0085,0.0,0.0,Mount Morris,34.67522,-86.749888,Row 43,bap13afe9.csv
13af5f,Config3,generic.blt,0.0,-60.0,60.0,presets60.csv,0x0085,0.0,0.0,Mount Morris,34.67522,-86.749888,Row 44,bap13af5f.csv
13af6d,Config2,generic.blt,0.0,-60.0,60.0,presets60.csv,0x0085,0.0,0.0,Mount Morris,34.67522,-86.749888,Row 45,bap13af6d.csv
13af58,Config2,generic.blt,0.0,-60.0,60.0,presets60.csv,0x0085,0.0,0.0,Mount Morris,34.67522,-86.749888,Row 46,bap13af58.csv
13ac12,Config2,generic.blt,0.0,-60.0,60.0,presets60.csv,0x0085,0.0,0.0,Mount Morris,34.67522,-86.749888,Row 47,bap13ac12.csv
13af61,Config3,generic.blt,0.0,-60.0,58.0,presets60.csv,0x0085,0.0,0.0,Mount Morris,34.67522,-86.749888,Row 48,bap13af61.csv
13af68,Config2,generic.blt,0.0,-60.0,60.0,presets60.csv,0x0085,0.0,0.0,Mount Morris,34.67522,-86.749888,Row 49,bap13af68.csv
13af54,Config2,generic.blt,0.0,-60.0,60.0,presets60.csv,0x0085,0.0,0.0,Mount Morris,34.67522,-86.749888,Row 50,bap13af54.csv
13ad62,Config2,generic.blt,0.0,-60.0,60.0,presets60.csv,0x0085,0.0,0.0,Mount Morris,34.67522,-86.749888,Row 51,bap13ad62.csv
13b0e3,Config2,generic.blt,0.0,-60.0,60.0,presets60.csv,0x0085,0.0,0.0,Mount Morris,34.67522,-86.749888,Row 52,bap13b0e3.csv
13b0f4,Config2,generic.blt,0.0,-60.0,60.0,presets60.csv,0x0085,0.0,0.0,Mount Morris,34.67522,-86.749888,Row 53,bap13b0f4.csv
13ac11,Config2,generic.blt,0.0,-60.0,60.0,presets60.csv,0x0085,0.0,0.0,Mount Morris,34.67522,-86.749888,Row 54,bap13ac11.csv
13b0e9,Config2,generic.blt,0.0,-60.0,60.0,presets60.csv,0x0085,0.0,0.0,Mount Morris,34.67522,-86.749888,Row 55,bap13b0e9.csv
13abe9,Config2,generic.blt,0.0,-60.0,60.0,presets60.csv,0x0085,0.0,0.0,Mount Morris,34.67522,-86.749888,Row 56,bap13abe9.csv
13b0fa,Config2,generic.blt,0.0,-60.0,60.0,presets60.csv,0x0085,0.0,0.0,Mount Morris,34.67522,-86.749888,Row 57,bap13b0fa.csv
13b0ef,Config2,generic.blt,0.0,-60.0,60.0,presets60.csv,0x0085,0.0,0.0,Mount Morris,34.67522,-86.749888,Row 58,bap13b0ef.csv
13b0f0,Config2,generic.blt,0.0,-60.0,60.0,presets60.csv,0x0085,0.0,0.0,Mount Morris,34.67522,-86.749888,Row 59,bap13b0f0.csv
13b0e2,Config2,generic.blt,0.0,-60.0,60.0,presets60.csv,0x0085,0.0,0.0,Mount Morris,34.67522,-86.749888,Row 60,bap13b0e2.csv
13af9d,Config2,generic.blt,0.0,-60.0,60.0,presets60.csv,0x0085,0.0,0.0,Mount Morris,34.67522,-86.749888,Row 61,bap13af9d.csv
13af4f,Config3,generic.blt,0.0,-60.0,60.0,presets60.csv,0x0085,0.0,0.0,Mount Morris,34.67522,-86.749888,Row 62,bap13af4f.csv
13ad87,Config3,generic.blt,0.0,-60.0,60.0,presets60.csv,0x0085,0.0,0.0,Mount Morris,34.67522,-86.749888,Row 63,bap13ad87.csv
13af59,Config2,generic.blt,0.0,-60.0,60.0,presets60.csv,0x0085,0.0,0.0,Mount Morris,34.67522,-86.749888,Row 64,bap13af59.csv
13afd4,Config2,generic.blt,0.0,-60.0,60.0,presets60.csv,0x0085,0.0,0.0,Mount Morris,34.67522,-86.749888,Row 65,bap13afd4.csv
13affb,Config2,generic.blt,0.0,-60.0,60.0,presets60.csv,0x0085,0.0,0.0,Mount Morris,34.67522,-86.749888,Row 66,bap13affb.csv
13af5c,Config2,generic.blt,0.0,-60.0,60.0,presets60.csv,0x0085,0.0,0.0,Mount Morris,34.67522,-86.749888,Row 67,bap13af5c.csv
13afeb,Config2,generic.blt,0.0,-60.0,60.0,presets60.csv,0x0085,0.0,0.0,Mount Morris,34.67522,-86.749888,Row 68,bap13afeb.csv
13ac10,Config2,generic.blt,0.0,-60.0,60.0,presets60.csv,0x0085,0.0,0.0,Mount Morris,34.67522,-86.749888,Row 69,bap13ac10.csv
13b0e8,Config2,generic.blt,0.0,-60.0,60.0,presets60.csv,0x0085,0.0,0.0,Mount Morris,34.67522,-86.749888,Row 70,bap13b0e8.csv
13ac0f,Config2,generic.blt,0.0,-60.0,60.0,presets60.csv,0x0085,0.0,0.0,Mount Morris,34.67522,-86.749888,Row 71,bap13ac0f.csv
13abf3,Config2,generic.blt,0.0,-60.0,60.0,presets60.csv,0x0085,0.0,0.0,Mount Morris,34.67522,-86.749888,Row 72,bap13abf3.csv
13b12d,Config2,generic.blt,0.0,-60.0,60.0,presets60.csv,0x0085,0.0,0.0,Mount Morris,34.67522,-86.749888,Row 73,bap13b12d.csv
13abf2,Config2,generic.blt,0.0,-60.0,60.0,presets60.csv,0x0085,0.0,0.0,Mount Morris,34.67522,-86.749888,Row 74,bap13abf2.csv
13ac1a,Config2,generic.blt,0.0,-60.0,60.0,presets60.csv,0x0085,0.0,0.0,Mount Morris,34.67522,-86.749888,Row 75,bap13ac1a.csv
13abe8,Config2,generic.blt,0.0,-60.0,60.0,presets60.csv,0x0085,0.0,0.0,Mount Morris,34.67522,-86.749888,Row 76,bap13abe8.csv
13abec,Config2,generic.blt,0.0,-60.0,60.0,presets60.csv,0x0085,0.0,0.0,Mount Morris,34.67522,-86.749888,Row 77,bap13abec.csv
13b0f1,Config2,generic.blt,0.0,-60.0,60.0,presets60.csv,0x0085,0.0,0.0,Mount Morris,34.67522,-86.749888,Row 78,bap13b0f1.csv
13ac16,Config2,generic.blt,0.0,-60.0,60.0,presets60.csv,0x0085,0.0,0.0,Mount Morris,34.67522,-86.749888,Row 79,bap13ac16.csv
13ac14,Config3,generic.blt,0.0,-60.0,60.0,presets60.csv,0x0085,0.0,0.0,Mount Morris,34.67522,-86.749888,Row 80,bap13ac14.csv
13b12c,Config3,generic.blt,0.0,-60.0,60.0,presets60.csv,0x0085,0.0,0.0,Mount Morris,34.67522,-86.749888,Row 81,bap13b12c.csv
13ae1a,Config2,generic.blt,0.0,-60.0,60.0,presets60.csv,0x0085,0.0,0.0,Mount Morris,34.67522,-86.749888,Row 82,bap13ae1a.csv
13b130,Config2,generic.blt,0.0,-60.0,60.0,presets60.csv,0x0085,0.0,0.0,Mount Morris,34.67522,-86.749888,Row 83,bap13b130.csv
13b0e7,Config2,generic.blt,0.0,-60.0,60.0,presets60.csv,0x0085,0.0,0.0,Mount Morris,34.67522,-86.749888,Row 84,bap13b0e7.csv
13b12a,Config2,generic.blt,0.0,-60.0,60.0,presets60.csv,0x0085,0.0,0.0,Mount Morris,34.67522,-86.749888,Row 85,bap13b12a.csv
13b0ea,Config2,generic.blt,0.0,-60.0,60.0,presets60.csv,0x0085,0.0,0.0,Mount Morris,34.67522,-86.749888,Row 86,bap13b0ea.csv
13b0e4,Config2,generic.blt,0.0,-60.0,60.0,presets60.csv,0x0085,0.0,0.0,Mount Morris,34.67522,-86.749888,Row 87,bap13b0e4.csv
13b122,Config2,generic.blt,0.0,-60.0,60.0,presets60.csv,0x0085,0.0,0.0,Mount Morris,34.67522,-86.749888,Row 88,bap13b122.csv
13abee,Config2,generic.blt,0.0,-60.0,60.0,presets60.csv,0x0085,0.0,0.0,Mount Morris,34.67522,-86.749888,Row 89,bap13abee.csv
13ac19,Config2,generic.blt,0.0,-60.0,60.0,presets60.csv,0x0085,0.0,0.0,Mount Morris,34.67522,-86.749888,Row 90,bap13ac19.csv
13b12e,Config2,generic.blt,0.0,-60.0,60.0,presets60.csv,0x0085,0.0,0.0,Mount Morris,34.67522,-86.749888,Row 91,bap13b12e.csv
13ac17,Config2,generic.blt,0.0,-60.0,60.0,presets60.csv,0x0085,0.0,0.0,Mount Morris,34.67522,-86.749888,Row 92,bap13ac17.csv
13b12b,Config2,generic.blt,0.0,-60.0,60.0,presets60.csv,0x0085,0.0,0.0,Mount Morris,34.67522,-86.749888,Row 93,bap13b12b.csv
13af22,Config2,generic.blt,0.0,-60.0,60.0,presets60.csv,0x0085,0.0,0.0,Mount Morris,34.67522,-86.749888,Row 94,bap13af22.csv
13b0f2,Config2,generic.blt,0.0,-60.0,60.0,presets60.csv,0x0085,0.0,0.0,Mount Morris,34.67522,-86.749888,Row 95,bap13b0f2.csv
