0,60.0,yes,Stow
1,0.0,no,Flat
2,0.0,no,Clean
3,0.0,no,Mow
4,-60.0,no,Rain East
5,+60.0,no,Rain West
6,-60.0,no,Min Angle
7,+60.0,no,Max Angle
8,-60,no,Nightly Stow
9,0.0,no,unused
10,0.0,no,unused
11,0.0,no,unused
12,0.0,no,unused
13,0.0,no,unused
14,0.0,no,unused
15,0.0,no,unused

