141e65,Config0,generic.blt,0.0,-60.0,60.0,presets60.csv,0x0000,0.0,0.0,Clay North,34.67522,-86.749888,NorthEast,dummybap.csv
141e78,Config1,generic.blt,0.0,-60.0,60.0,presets60.csv,0x0000,0.0,1.567,Clay North,34.67522,-86.749888,NorthWest,dummybap.csv
141017,Config0,generic.blt,0.0,-60.0,60.0,presets60.csv,0x00C5,0.0,0.0,Clay North,34.67522,-86.749888,Row 1,bap141017.csv
141010,Config0,generic.blt,0.0,-60.0,60.0,presets60.csv,0x00C5,0.0,0.0,Clay North,34.67522,-86.749888,Row 2,bap141010.csv
141012,Config0,generic.blt,0.0,-60.0,60.0,presets60.csv,0x00C5,0.0,0.0,Clay North,34.67522,-86.749888,Row 3,bap141012.csv
13af60,Config0,generic.blt,0.0,-60.0,60.0,presets60.csv,0x00C5,0.0,0.0,Clay North,34.67522,-86.749888,Row 4,bap13af60.csv
141f44,Config0,generic.blt,0.0,-60.0,60.0,presets60.csv,0x00C5,0.0,0.0,Clay North,34.67522,-86.749888,Row 5,bap141f44.csv
141e97,Config0,generic.blt,0.0,-60.0,60.0,presets60.csv,0x00C5,0.0,0.0,Clay North,34.67522,-86.749888,Row 6,bap141e97.csv
141f37,Config0,generic.blt,0.0,-60.0,60.0,presets60.csv,0x00C5,0.0,0.0,Clay North,34.67522,-86.749888,Row 7,bap141f37.csv
141ecb,Config0,generic.blt,0.0,-60.0,60.0,presets60.csv,0x00C5,0.0,0.0,Clay North,34.67522,-86.749888,Row 8,bap141ecb.csv
141018,Config0,generic.blt,0.0,-60.0,60.0,presets60.csv,0x00C5,0.0,0.0,Clay North,34.67522,-86.749888,Row 9,bap141018.csv
141080,Config0,generic.blt,0.0,-60.0,60.0,presets60.csv,0x00C5,0.0,0.0,Clay North,34.67522,-86.749888,Row 10,bap141080.csv
1410d7,Config0,generic.blt,0.0,-60.0,60.0,presets60.csv,0x00C5,0.0,0.0,Clay North,34.67522,-86.749888,Row 11,bap1410d7.csv
141fba,Config0,generic.blt,0.0,-60.0,60.0,presets60.csv,0x00C5,0.0,0.0,Clay North,34.67522,-86.749888,Row 12,bap141fba.csv
1410c9,Config0,generic.blt,0.0,-60.0,60.0,presets60.csv,0x00C5,0.0,0.0,Clay North,34.67522,-86.749888,Row 13,bap1410c9.csv
1410d6,Config0,generic.blt,0.0,-60.0,60.0,presets60.csv,0x00C5,0.0,0.0,Clay North,34.67522,-86.749888,Row 14,bap1410d6.csv
141fae,Config0,generic.blt,0.0,-60.0,60.0,presets60.csv,0x00C5,0.0,0.0,Clay North,34.67522,-86.749888,Row 15,bap141fae.csv
141f42,Config0,generic.blt,0.0,-60.0,60.0,presets60.csv,0x00C5,0.0,0.0,Clay North,34.67522,-86.749888,Row 16,bap141f42.csv
141fd3,Config0,generic.blt,0.0,-60.0,60.0,presets60.csv,0x00C5,0.0,0.0,Clay North,34.67522,-86.749888,Row 17,bap141fd3.csv
141d5e,Config0,generic.blt,0.0,-60.0,60.0,presets60.csv,0x00C5,0.0,0.0,Clay North,34.67522,-86.749888,Row 18,bap141d5e.csv
141ee5,Config0,generic.blt,0.0,-60.0,60.0,presets60.csv,0x00C5,0.0,0.0,Clay North,34.67522,-86.749888,Row 19,bap141ee5.csv
141f43,Config0,generic.blt,0.0,-60.0,60.0,presets60.csv,0x00C5,0.0,0.0,Clay North,34.67522,-86.749888,Row 20,bap141f43.csv
141eb1,Config0,generic.blt,0.0,-60.0,60.0,presets60.csv,0x00C5,0.0,0.0,Clay North,34.67522,-86.749888,Row 21,bap141eb1.csv
141dce,Config0,generic.blt,0.0,-60.0,60.0,presets60.csv,0x00C5,0.0,0.0,Clay North,34.67522,-86.749888,Row 22,bap141dce.csv
1410d3,Config0,generic.blt,0.0,-60.0,60.0,presets60.csv,0x00C5,0.0,0.0,Clay North,34.67522,-86.749888,Row 23,bap1410d3.csv
141f36,Config0,generic.blt,0.0,-60.0,60.0,presets60.csv,0x00C5,0.0,0.0,Clay North,34.67522,-86.749888,Row 24,bap141f36.csv
141d68,Config0,generic.blt,0.0,-60.0,60.0,presets60.csv,0x00C5,0.0,0.0,Clay North,34.67522,-86.749888,Row 25,bap141d68.csv
141dca,Config0,generic.blt,0.0,-60.0,60.0,presets60.csv,0x00C5,0.0,0.0,Clay North,34.67522,-86.749888,Row 26,bap141dca.csv
19a067,Config0,generic.blt,0.0,-60.0,60.0,presets60.csv,0x00C5,0.0,0.0,Clay North,34.67522,-86.749888,Row 27,bap19a067.csv
141f1c,Config0,generic.blt,0.0,-60.0,60.0,presets60.csv,0x00C5,0.0,0.0,Clay North,34.67522,-86.749888,Row 28,bap141f1c.csv
141e9d,Config0,generic.blt,0.0,-60.0,60.0,presets60.csv,0x00C5,0.0,0.0,Clay North,34.67522,-86.749888,Row 29,bap141e9d.csv
14105c,Config0,generic.blt,0.0,-60.0,60.0,presets60.csv,0x00C5,0.0,0.0,Clay North,34.67522,-86.749888,Row 30,bap14105c.csv
14105a,Config0,generic.blt,0.0,-60.0,60.0,presets60.csv,0x00C5,0.0,0.0,Clay North,34.67522,-86.749888,Row 31,bap14105a.csv
141058,Config0,generic.blt,0.0,-60.0,60.0,presets60.csv,0x00C5,0.0,0.0,Clay North,34.67522,-86.749888,Row 32,bap141058.csv
141ea5,Config0,generic.blt,0.0,-60.0,60.0,presets60.csv,0x00C5,0.0,0.0,Clay North,34.67522,-86.749888,Row 33,bap141ea5.csv
141055,Config0,generic.blt,0.0,-60.0,60.0,presets60.csv,0x00C5,0.0,0.0,Clay North,34.67522,-86.749888,Row 34,bap141055.csv
141fc8,Config0,generic.blt,0.0,-60.0,60.0,presets60.csv,0x00C5,0.0,0.0,Clay North,34.67522,-86.749888,Row 35,bap141fc8.csv
141064,Config0,generic.blt,0.0,-60.0,60.0,presets60.csv,0x00C5,0.0,0.0,Clay North,34.67522,-86.749888,Row 36,bap141064.csv
14103e,Config0,generic.blt,0.0,-60.0,60.0,presets60.csv,0x00C5,0.0,0.0,Clay North,34.67522,-86.749888,Row 37,bap14103e.csv
141050,Config0,generic.blt,0.0,-60.0,60.0,presets60.csv,0x00C5,0.0,0.0,Clay North,34.67522,-86.749888,Row 38,bap141050.csv
141079,Config0,generic.blt,0.0,-60.0,60.0,presets60.csv,0x00C5,0.0,0.0,Clay North,34.67522,-86.749888,Row 39,bap141079.csv
141e9e,Config0,generic.blt,0.0,-60.0,60.0,presets60.csv,0x00C5,0.0,0.0,Clay North,34.67522,-86.749888,Row 40,bap141e9e.csv
141e7f,Config0,generic.blt,0.0,-60.0,60.0,presets60.csv,0x00C5,0.0,0.0,Clay North,34.67522,-86.749888,Row 41,bap141e7f.csv
19a65b,Config0,generic.blt,0.0,-60.0,60.0,presets60.csv,0x00C5,0.0,0.0,Clay North,34.67522,-86.749888,Row 42,bap19a65b.csv
19a652,Config0,generic.blt,0.0,-60.0,60.0,presets60.csv,0x00C5,0.0,0.0,Clay North,34.67522,-86.749888,Row 43,bap19a652.csv
141dcd,Config0,generic.blt,0.0,-60.0,60.0,presets60.csv,0x00C5,0.0,0.0,Clay North,34.67522,-86.749888,Row 44,bap141dcd.csv
140ff0,Config0,generic.blt,0.0,-60.0,60.0,presets60.csv,0x00C5,0.0,0.0,Clay North,34.67522,-86.749888,Row 45,bap140ff0.csv
14100a,Config0,generic.blt,0.0,-60.0,60.0,presets60.csv,0x00C5,0.0,0.0,Clay North,34.67522,-86.749888,Row 46,bap14100a.csv
140fe3,Config0,generic.blt,0.0,-60.0,60.0,presets60.csv,0x00C5,0.0,0.0,Clay North,34.67522,-86.749888,Row 47,bap140fe3.csv
141ec3,Config0,generic.blt,0.0,-60.0,60.0,presets60.csv,0x00C5,0.0,0.0,Clay North,34.67522,-86.749888,Row 48,bap141ec3.csv
141004,Config0,generic.blt,0.0,-60.0,60.0,presets60.csv,0x00C5,0.0,0.0,Clay North,34.67522,-86.749888,Row 49,bap141004.csv
141000,Config0,generic.blt,0.0,-60.0,60.0,presets60.csv,0x00C5,0.0,0.0,Clay North,34.67522,-86.749888,Row 50,bap141000.csv
14100f,Config0,generic.blt,0.0,-60.0,60.0,presets60.csv,0x00C5,0.0,0.0,Clay North,34.67522,-86.749888,Row 51,bap14100f.csv
140ff1,Config0,generic.blt,0.0,-60.0,60.0,presets60.csv,0x00C5,0.0,0.0,Clay North,34.67522,-86.749888,Row 52,bap140ff1.csv
1410bf,Config0,generic.blt,0.0,-60.0,60.0,presets60.csv,0x00C5,0.0,0.0,Clay North,34.67522,-86.749888,Row 53,bap1410bf.csv
1410d1,Config0,generic.blt,0.0,-60.0,60.0,presets60.csv,0x00C5,0.0,0.0,Clay North,34.67522,-86.749888,Row 54,bap1410d1.csv
141f3f,Config0,generic.blt,0.0,-60.0,60.0,presets60.csv,0x00C5,0.0,0.0,Clay North,34.67522,-86.749888,Row 55,bap141f3f.csv
141fc7,Config0,generic.blt,0.0,-60.0,60.0,presets60.csv,0x00C5,0.0,0.0,Clay North,34.67522,-86.749888,Row 56,bap141fc7.csv
141f3a,Config0,generic.blt,0.0,-60.0,60.0,presets60.csv,0x00C5,0.0,0.0,Clay North,34.67522,-86.749888,Row 57,bap141f3a.csv
141fcd,Config0,generic.blt,0.0,-60.0,60.0,presets60.csv,0x00C5,0.0,0.0,Clay North,34.67522,-86.749888,Row 58,bap141fcd.csv
19a068,Config0,generic.blt,0.0,-60.0,60.0,presets60.csv,0x00C5,0.0,0.0,Clay North,34.67522,-86.749888,Row 59,bap19a068.csv
141dc6,Config0,generic.blt,0.0,-60.0,60.0,presets60.csv,0x00C5,0.0,0.0,Clay North,34.67522,-86.749888,Row 60,bap141dc6.csv
141f3c,Config0,generic.blt,0.0,-60.0,60.0,presets60.csv,0x00C5,0.0,0.0,Clay North,34.67522,-86.749888,Row 61,bap141f3c.csv
141db6,Config0,generic.blt,0.0,-60.0,60.0,presets60.csv,0x00C5,0.0,0.0,Clay North,34.67522,-86.749888,Row 62,bap141db6.csv
141f3d,Config0,generic.blt,0.0,-60.0,60.0,presets60.csv,0x00C5,0.0,0.0,Clay North,34.67522,-86.749888,Row 63,bap141f3d.csv
141ee7,Config0,generic.blt,0.0,-60.0,60.0,presets60.csv,0x00C5,0.0,0.0,Clay North,34.67522,-86.749888,Row 64,bap141ee7.csv
141ee2,Config0,generic.blt,0.0,-60.0,60.0,presets60.csv,0x00C5,0.0,0.0,Clay North,34.67522,-86.749888,Row 65,bap141ee2.csv
141fc6,Config0,generic.blt,0.0,-60.0,60.0,presets60.csv,0x00C5,0.0,0.0,Clay North,34.67522,-86.749888,Row 66,bap141fc6.csv
141f3e,Config0,generic.blt,0.0,-60.0,60.0,presets60.csv,0x00C5,0.0,0.0,Clay North,34.67522,-86.749888,Row 67,bap141f3e.csv
141ee9,Config0,generic.blt,0.0,-60.0,60.0,presets60.csv,0x00C5,0.0,0.0,Clay North,34.67522,-86.749888,Row 68,bap141ee9.csv
141ec6,Config0,generic.blt,0.0,-60.0,60.0,presets60.csv,0x00C5,0.0,0.0,Clay North,34.67522,-86.749888,Row 69,bap141ec6.csv
19a111,Config0,generic.blt,0.0,-60.0,60.0,presets60.csv,0x00C5,0.0,0.0,Clay North,34.67522,-86.749888,Row 70,bap19a111.csv
141d29,Config0,generic.blt,0.0,-60.0,60.0,presets60.csv,0x00C5,0.0,0.0,Clay North,34.67522,-86.749888,Row 71,bap141d29.csv
19a047,Config0,generic.blt,0.0,-60.0,60.0,presets60.csv,0x00C5,0.0,0.0,Clay North,34.67522,-86.749888,Row 72,bap19a047.csv
19a058,Config0,generic.blt,0.0,-60.0,60.0,presets60.csv,0x00C5,0.0,0.0,Clay North,34.67522,-86.749888,Row 73,bap19a058.csv
140fba,Config0,generic.blt,0.0,-60.0,60.0,presets60.csv,0x00C5,0.0,0.0,Clay North,34.67522,-86.749888,Row 74,bap140fba.csv
13aef8,Config0,generic.blt,0.0,-60.0,60.0,presets60.csv,0x00C5,0.0,0.0,Clay North,34.67522,-86.749888,Row 75,bap13aef8.csv
141e17,Config0,generic.blt,0.0,-60.0,60.0,presets60.csv,0x00C5,0.0,0.0,Clay North,34.67522,-86.749888,Row 76,bap141e17.csv
141059,Config0,generic.blt,0.0,-60.0,60.0,presets60.csv,0x00C5,0.0,0.0,Clay North,34.67522,-86.749888,Row 77,bap141059.csv
141052,Config0,generic.blt,0.0,-60.0,60.0,presets60.csv,0x00C5,0.0,0.0,Clay North,34.67522,-86.749888,Row 78,bap141052.csv
141077,Config0,generic.blt,0.0,-60.0,60.0,presets60.csv,0x00C5,0.0,0.0,Clay North,34.67522,-86.749888,Row 79,bap141077.csv
141057,Config0,generic.blt,0.0,-60.0,60.0,presets60.csv,0x00C5,0.0,0.0,Clay North,34.67522,-86.749888,Row 80,bap141057.csv
14105f,Config0,generic.blt,0.0,-60.0,60.0,presets60.csv,0x00C5,0.0,0.0,Clay North,34.67522,-86.749888,Row 81,bap14105f.csv
141075,Config0,generic.blt,0.0,-60.0,60.0,presets60.csv,0x00C5,0.0,0.0,Clay North,34.67522,-86.749888,Row 82,bap141075.csv
141053,Config0,generic.blt,0.0,-60.0,60.0,presets60.csv,0x00C5,0.0,0.0,Clay North,34.67522,-86.749888,Row 83,bap141053.csv
19a642,Config0,generic.blt,0.0,-60.0,60.0,presets60.csv,0x00C5,0.0,0.0,Clay North,34.67522,-86.749888,Row 84,bap19a642.csv
19a682,Config0,generic.blt,0.0,-60.0,60.0,presets60.csv,0x00C5,0.0,0.0,Clay North,34.67522,-86.749888,Row 85,bap19a682.csv
141ea6,Config0,generic.blt,0.0,-60.0,60.0,presets60.csv,0x00C5,0.0,0.0,Clay North,34.67522,-86.749888,Row 86,bap141ea6.csv
141f96,Config0,generic.blt,0.0,-60.0,60.0,presets60.csv,0x00C5,0.0,0.0,Clay North,34.67522,-86.749888,Row 87,bap141f96.csv
141d93,Config0,generic.blt,0.0,-60.0,60.0,presets60.csv,0x00C5,0.0,0.0,Clay North,34.67522,-86.749888,Row 88,bap141d93.csv
